{
  "title": "Week 7",
  "contents": [
    {
      "label": "&#11013; Back to Table of Contents",
      "url": "/"
    },
    {
      "label": "&#127944; Team Activity",
      "url": "week7/team/",
      "target": "_blank"
    },
    {
      "label": "&#129399; Quiz Ninja Updates",
      "url": "week7/quiz-ninja/",
      "target": "_blank"
    },
    {
      "label": "Content Negotiation",
      "url": "week7/content-negotiation.html",
      "target": "_blank"
    },
    {
      "label": "Dominant Writing Direction",
      "url": "week7/dominant-writing-direction.html",
      "target": "_blank"
    },
    {
      "label": "Everything",
      "url": "week7/everything.html",
      "target": "_blank"
    },
    {
      "label": "Flattening",
      "url": "week7/flattening.html",
      "target": "_blank"
    },
    {
      "label": "Javascript Workbench",
      "url": "week7/javascript-workbench.html",
      "target": "_blank"
    },
    {
      "label": "Your Own Loop",
      "url": "week7/your-own-loop.html",
      "target": "_blank"
    }
  ]
}

